INPUT,,OUTPUT,,,,,
Product Type,Product Vendor,Colour (Variant Option),Colour,Vendor (Vendor),Vendor,Tag 1,Tag 2
mr sport luxe pant,main range,Black,,Main Range,,Group: Pants,
ss skinny jean,6&7,,,6&7,,Group: Pants,
mr fancy dress,main range,,,main range,faithfuls,Group: Dresses,